[
  {
  "name":"CLA 45 AMG",
  "price":"45000",
  "imagePath":"/images/63842325.jpg",
  "sku":"001",
  "color":"black"
},

  {
    "name":"GLE 63 Brabus 900",
    "price":"200000",
    "imagePath":"/images/brabus-900-rocket-edition-auf-basis-mercedes-amg-gle-63.jpg",
    "sku":"002",
    "color":"nardoGrey"
  },
  {
    "name":" GT Brabus rocket 900",
    "price":"300000",
    "imagePath":"/images/image.jpg",
    "sku":"003",
    "color":"red"
  },
  {
    "name":"amg gt2 pro",
    "price":"450000",
    "imagePath":"/images/mercedes-amg-gt-gt2-pro-1.jpg",
    "sku":"004",
    "color":"grey"
  },
  {
    "name":"SL 63 amg",
    "price":"300000",
    "imagePath":"/images/mercedes-amg-sl-63-by-manhart.jpg",
    "sku":"005",
    "color":"black"
  },
  {
    "name":"e 63s amg",
    "price":"125000",
    "imagePath":"/images/Mercedes-AMG_E63_S_(51478296067).jpg",
    "sku":"006",
    "color":"asphalt"
  },
  {
    "name":"g 63 amg",
    "price":"200000",
    "imagePath":"/images/mercedes-benz_g-class__511075039f.jpg",
    "sku":"007",
    "color":"black"
  },
  {
    "name":"s 63 amg",
    "price":"80000",
    "imagePath":"/images/mercedes-benz_s-class__516561694f.jpg",
    "sku":"008",
    "color":"black"
  },
  {
    "name":"c 63 amg w204 black series",
    "price":"167000",
    "imagePath":"/images/s-l1600.jpg",
    "sku":"009",
    "color":"black"
  },
  {
    "name":"cls 63 amg",
    "price":"55000",
    "imagePath":"/images/scale_1200.jpeg",
    "sku":"010",
    "color":"asphalt"
  },
  {
    "name":"AMG ONE",
    "price":"450000",
    "imagePath":"/images/suUvif.jpeg",
    "sku":"011",
    "color":"grey"
  },
  {
    "name":"s 63 coupe amg",
    "price":"130000",
    "imagePath":"/images/unnamed.jpg",
    "sku":"012",
    "color":"black"
  }
]